{
	"process_id" : 16232,
	"version" : "2018.4.5f1",
	"app_path" : "C:/Program Files/Unity/Hub/Editor/2018.4.5f1/Editor/Unity.exe",
	"app_contents_path" : "C:/Program Files/Unity/Hub/Editor/2018.4.5f1/Editor/Data"
}